%YAML 1.1
%TAG !u! tag:unity3d.com,2011:
--- !u!114 &11400000
MonoBehaviour:
  m_ObjectHideFlags: 0
  m_CorrespondingSourceObject: {fileID: 0}
  m_PrefabInstance: {fileID: 0}
  m_PrefabAsset: {fileID: 0}
  m_GameObject: {fileID: 0}
  m_Enabled: 1
  m_EditorHideFlags: 0
  m_Script: {fileID: 11500000, guid: 9f262818b55b0f4418296bad0176bdab, type: 3}
  m_Name: G3A
  m_EditorClassIdentifier: 
  <DialogueName>k__BackingField: G3A
  <Text>k__BackingField: 3A
  <Choices>k__BackingField:
  - <Text>k__BackingField: Next Dialogue
    <NextDialogue>k__BackingField: {fileID: 0}
  <DialogueType>k__BackingField: 0
  <IsStartingDialogue>k__BackingField: 0
  <DialogueCharacter>k__BackingField: {fileID: 0}
